{
  "resourceType": "Practitioner",
  "id": "1",
  "identifier": [
    {
      "system": "urn:oid:2.16.528.1.1007.3.1",
      "use": "official",
      "value": "730291637"
    }
  ],
  "birthDate": "1979-04-29",
  "gender": "male",
  "name": [
    {
      "family": "Voigt",
      "given": [
        "Pieter"
      ],
      "suffix": [
        "MD"
      ],
      "use": "official"
    }
  ]
}