{
  "resourceType": "List",
  "id": "1",
  "status": "current",
  "mode": "snapshot",
  "subject": {
    "reference": "Group/1"
  },
  "source": {
    "reference": "Practitioner/1"
  },
  "date": "2012-11-25T22:17:00+11:00",
  "code": {
    "coding": [
      {
        "code": "cohort",
        "system": "http://terminology.hl7.org/CodeSystem/list-code"
      }
    ]
  },
  "entry": [
    {
      "item": {
        "reference": "Patient/1"
      }
    },
    {
      "item": {
        "reference": "Patient/2"
      }
    }
  ]
}