{
  "resourceType": "Procedure",
  "meta": {
    "profile": [
      "https://fhir.eds.aphp.fr/StructureDefinition/ProcedureEDS"
    ]
  },
  "id": "1",
  "subject": {
    "reference": "Patient/1"
  },
  "encounter": {
    "reference": "Encounter/1"
  },
  "performedDateTime": "2013-04-05",
  "code": {
    "coding": [
      {
        "code": "80146002",
        "display": "Appendectomy (Procedure)",
        "system": "http://snomed.info/sct"
      }
    ]
  },
  "recorder": {
    "reference": "Practitioner/1"
  },
  "status": "completed"
}